<svg width="102" height="102" viewBox="0 0 102 102" fill="none" xmlns="http://www.w3.org/2000/svg">
<rect width="102" height="102" fill="#141F41"/>
<rect x="23.8" y="36.5498" width="54.4" height="41.65" fill="url(#paint0_linear)"/>
<path opacity="0.8" d="M77.7001 47.1748C77.7001 48.4555 77.0376 49.7294 75.7233 50.9432C74.4085 52.1575 72.4784 53.274 70.0514 54.2221C65.2005 56.117 58.465 57.2998 51 57.2998C43.5351 57.2998 36.7996 56.117 31.9487 54.2221C29.5217 53.274 27.5916 52.1575 26.2768 50.9432C24.9625 49.7294 24.3 48.4555 24.3 47.1748C24.3 45.8941 24.9625 44.6202 26.2768 43.4064C27.5916 42.1921 29.5217 41.0756 31.9487 40.1275C36.7996 38.2326 43.5351 37.0498 51 37.0498C58.465 37.0498 65.2005 38.2326 70.0514 40.1275C72.4784 41.0756 74.4085 42.1921 75.7233 43.4064C77.0376 44.6202 77.7001 45.8941 77.7001 47.1748Z" stroke="#32BBA9"/>
<path opacity="0.4" d="M77.7001 54.4004C77.7001 55.6811 77.0376 56.955 75.7233 58.1688C74.4085 59.3831 72.4784 60.4996 70.0514 61.4477C65.2005 63.3426 58.465 64.5254 51 64.5254C43.5351 64.5254 36.7996 63.3426 31.9487 61.4477C29.5217 60.4996 27.5916 59.3831 26.2768 58.1688C24.9625 56.955 24.3 55.6811 24.3 54.4004C24.3 53.1197 24.9625 51.8458 26.2768 50.632C27.5916 49.4177 29.5217 48.3012 31.9487 47.3531C36.7996 45.4582 43.5351 44.2754 51 44.2754C58.465 44.2754 65.2005 45.4582 70.0514 47.3531C72.4784 48.3012 74.4085 49.4177 75.7233 50.632C77.0376 51.8458 77.7001 53.1197 77.7001 54.4004Z" stroke="#32BBA9"/>
<path opacity="0.2" d="M77.7001 61.6253C77.7001 62.8393 77.0458 64.0557 75.7308 65.2215C74.4165 66.3868 72.4861 67.459 70.0578 68.3696C65.2049 70.1895 58.467 71.3253 51 71.3253C43.5331 71.3253 36.7952 70.1895 31.9423 68.3696C29.514 67.459 27.5836 66.3868 26.2693 65.2215C24.9543 64.0557 24.3 62.8393 24.3 61.6253C24.3 60.4113 24.9543 59.1949 26.2693 58.0291C27.5836 56.8638 29.514 55.7916 31.9423 54.881C36.7952 53.0611 43.5331 51.9253 51 51.9253C58.467 51.9253 65.2049 53.0611 70.0578 54.881C72.4861 55.7916 74.4165 56.8638 75.7308 58.0291C77.0458 59.1949 77.7001 60.4113 77.7001 61.6253Z" stroke="#32BBA9"/>
<path opacity="0.1" d="M77.7001 68.0003C77.7001 69.2143 77.0458 70.4307 75.7308 71.5965C74.4165 72.7618 72.4861 73.834 70.0578 74.7446C65.2049 76.5645 58.467 77.7003 51 77.7003C43.5331 77.7003 36.7952 76.5645 31.9423 74.7446C29.514 73.834 27.5836 72.7618 26.2693 71.5965C24.9543 70.4307 24.3 69.2143 24.3 68.0003C24.3 66.7863 24.9543 65.5699 26.2693 64.4041C27.5836 63.2388 29.514 62.1666 31.9423 61.256C36.7952 59.4361 43.5331 58.3003 51 58.3003C58.467 58.3003 65.2049 59.4361 70.0578 61.256C72.4861 62.1666 74.4165 63.2388 75.7308 64.4041C77.0458 65.5699 77.7001 66.7863 77.7001 68.0003Z" stroke="#32BBA9"/>
<ellipse cx="51" cy="36.1248" rx="27.2" ry="12.325" fill="url(#paint1_linear)"/>
<g style="mix-blend-mode:lighten" opacity="0.8">
<path d="M46.6603 14.6954C47.5496 14.6954 48.2705 13.9745 48.2705 13.0853C48.2705 12.196 47.5496 11.4751 46.6603 11.4751C45.7709 11.4751 45.05 12.196 45.05 13.0853C45.05 13.9745 45.7709 14.6954 46.6603 14.6954Z" fill="url(#paint2_linear)"/>
</g>
<g style="mix-blend-mode:lighten" opacity="0.8">
<path d="M86.1852 49.5455C87.0745 49.5455 87.7955 48.8246 87.7955 47.9354C87.7955 47.0461 87.0745 46.3252 86.1852 46.3252C85.2959 46.3252 84.575 47.0461 84.575 47.9354C84.575 48.8246 85.2959 49.5455 86.1852 49.5455Z" fill="#A0CD37"/>
</g>
<g style="mix-blend-mode:lighten" opacity="0.8">
<path d="M33.0603 83.9703C33.9496 83.9703 34.6705 83.2494 34.6705 82.3602C34.6705 81.4709 33.9496 80.75 33.0603 80.75C32.171 80.75 31.45 81.4709 31.45 82.3602C31.45 83.2494 32.171 83.9703 33.0603 83.9703Z" fill="#32BBA9"/>
</g>
<g style="mix-blend-mode:lighten" opacity="0.8">
<path d="M16.9103 37.3409C17.7996 37.3409 18.5205 36.62 18.5205 35.7308C18.5205 34.8415 17.7996 34.1206 16.9103 34.1206C16.0209 34.1206 15.3 34.8415 15.3 35.7308C15.3 36.62 16.0209 37.3409 16.9103 37.3409Z" fill="#FB762B"/>
</g>
<defs>
<linearGradient id="paint0_linear" x1="50.6944" y1="78.1998" x2="50.6855" y2="23.6873" gradientUnits="userSpaceOnUse">
<stop stop-color="#32BBA9" stop-opacity="0"/>
<stop offset="1" stop-color="#1174BB"/>
</linearGradient>
<linearGradient id="paint1_linear" x1="23.8" y1="48.4498" x2="42.2067" y2="7.5867" gradientUnits="userSpaceOnUse">
<stop stop-color="#32BBA9"/>
<stop offset="1" stop-color="#1174BB"/>
</linearGradient>
<linearGradient id="paint2_linear" x1="1038.84" y1="907.2" x2="1551" y2="907.2" gradientUnits="userSpaceOnUse">
<stop stop-color="#D4088C"/>
<stop offset="0.23" stop-color="#D4088C"/>
<stop offset="0.51" stop-color="#6EE1F8"/>
<stop offset="0.78" stop-color="#6EE8FC"/>
<stop offset="1" stop-color="#6EE8FC"/>
</linearGradient>
</defs>
</svg>
