<svg width="63" height="55" viewBox="0 0 63 55" fill="none" xmlns="http://www.w3.org/2000/svg">
<path d="M19.063 11.7857V12.2857H19.563H58.689H59.189V11.7857V7.85714C59.189 5.49587 57.1331 3.42857 54.7764 3.42857H19.563H19.063V3.92857V11.7857ZM16.1504 3.92857V3.42857H15.6504H7.8252C5.33624 3.42857 3.4126 5.50608 3.4126 7.85714V11.7857V12.2857H3.9126H15.6504H16.1504V11.7857V3.92857ZM3.9126 15.2143H3.4126V15.7143V47.1429C3.4126 49.6269 5.3463 51.5714 7.8252 51.5714H54.7764C57.1229 51.5714 59.189 49.637 59.189 47.1429V15.7143V15.2143H58.689H3.9126ZM0.5 7.85714C0.5 3.82937 3.70666 0.5 7.8252 0.5H54.7764C58.7778 0.5 62.1016 3.83449 62.1016 7.85714V47.1429C62.1016 51.2832 58.7829 54.5 54.7764 54.5H7.8252C3.70159 54.5 0.5 51.2883 0.5 47.1429V7.85714ZM6.5 21C6.5 20.1716 7.17157 19.5 8 19.5H54C54.8284 19.5 55.5 20.1716 55.5 21C55.5 21.8284 54.8284 22.5 54 22.5H8C7.17157 22.5 6.5 21.8284 6.5 21Z" fill="url(#paint0_linear_55_1917)" stroke="#FE6610"/>
<defs>
<linearGradient id="paint0_linear_55_1917" x1="-3.00986e-06" y1="55" x2="54.3388" y2="-7.21662" gradientUnits="userSpaceOnUse">
<stop stop-color="#FB762B"/>
<stop offset="1" stop-color="#F2512D"/>
</linearGradient>
</defs>
</svg>
