<svg width="146" height="166" viewBox="0 0 146 166" fill="none" xmlns="http://www.w3.org/2000/svg">
<circle cx="73" cy="93" r="69" stroke="white" stroke-width="8" stroke-linecap="round"/>
<path d="M73 94L103 80.5" stroke="white" stroke-width="8" stroke-linecap="round"/>
<circle opacity="0.6" cx="73" cy="93" r="11" fill="white"/>
<path opacity="0.4" d="M126 93C126 63.7289 102.271 40 73 40C43.7289 40 20 63.7289 20 93C20 122.271 43.7289 146 73 146" stroke="url(#paint0_linear)" stroke-width="24" stroke-linecap="round"/>
<path opacity="0.8" d="M86.3385 69.8971C73.5791 62.5304 57.2637 66.9021 49.8971 79.6615C42.5305 92.4209 46.9022 108.736 59.6615 116.103C72.4209 123.469 88.7363 119.098 96.1029 106.338" stroke="url(#paint1_linear)" stroke-width="24" stroke-linecap="round"/>
<path fill-rule="evenodd" clip-rule="evenodd" d="M62 0C59.7909 0 58 1.79086 58 4C58 6.20914 59.7909 8 62 8H68V19C68 21.2091 69.7909 23 72 23C74.2091 23 76 21.2091 76 19V8H82C84.2091 8 86 6.20914 86 4C86 1.79086 84.2091 0 82 0H62Z" fill="white"/>
<defs>
<linearGradient id="paint0_linear" x1="82" y1="146" x2="125.686" y2="39.8706" gradientUnits="userSpaceOnUse">
<stop stop-color="#32BBA9" stop-opacity="0"/>
<stop offset="0.34375" stop-color="#32BBA9"/>
<stop offset="1" stop-color="#1174BB" stop-opacity="0.96"/>
</linearGradient>
<linearGradient id="paint1_linear" x1="105" y1="97.5" x2="38.9739" y2="88.6956" gradientUnits="userSpaceOnUse">
<stop stop-color="#32BBA9" stop-opacity="0"/>
<stop offset="0.34375" stop-color="#32BBA9"/>
<stop offset="1" stop-color="#1174BB" stop-opacity="0.96"/>
</linearGradient>
</defs>
</svg>
