<svg width="122" height="64" viewBox="0 0 122 64" fill="none" xmlns="http://www.w3.org/2000/svg">
<path fill-rule="evenodd" clip-rule="evenodd" d="M61.34 42.8023C70.2015 42.8023 77.3852 35.6186 77.3852 26.7571C77.3852 17.8956 70.2015 10.7119 61.34 10.7119C52.4785 10.7119 45.2948 17.8956 45.2948 26.7571C45.2948 35.6186 52.4785 42.8023 61.34 42.8023ZM61.34 50.8023C74.6198 50.8023 85.3852 40.0369 85.3852 26.7571C85.3852 13.4773 74.6198 2.71191 61.34 2.71191C48.0602 2.71191 37.2948 13.4773 37.2948 26.7571C37.2948 40.0369 48.0602 50.8023 61.34 50.8023Z" fill="white"/>
<path fill-rule="evenodd" clip-rule="evenodd" d="M10.3219 31.3033C19.4218 40.9704 37.6859 55.8192 60.4812 55.8192C72.9006 55.8192 85.2758 51.4253 95.1529 45.7739C100.072 42.9594 104.285 39.8812 107.495 36.9843C109.638 35.05 111.222 33.2967 112.28 31.8457C104.381 22.8548 85.3237 8 60.4812 8C36.0888 8 17.9898 22.3273 10.3219 31.3033ZM1.84333 29.1457C8.91571 19.3058 30.2902 0 60.4812 0C90.6398 0 112.849 19.2709 120.335 29.0486L121.804 30.9671L120.789 33.1599C119.347 36.2768 116.452 39.6765 112.855 42.9232C109.181 46.2389 104.494 49.6461 99.1259 52.7176C88.4286 58.8383 74.6833 63.8192 60.4812 63.8192C32.0599 63.8192 10.575 43.9262 2.06715 34.0982L0 31.7103L1.84333 29.1457Z" fill="white"/>
</svg>
